{
  "href": "https://api.spotify.com/v1/me/top/tracks?limit=1&locale=en-US,en;q%3D0.9",
  "limit": 1,
  "next": "https://api.spotify.com/v1/me/top/tracks?offset=1&limit=1&locale=en-US,en;q%3D0.9",
  "offset": 0,
  "previous": null,
  "total": 2967,
  "items": [
    {
      "album": {
        "album_type": "album",
        "total_tracks": 15,
        "available_markets": ["AR", "AU", "AT", "BE", "BO", "BR", "BG", "CL", "CO", "CR", "CY", "CZ", "DK", "DO", "DE", "EC", "EE", "SV", "FI", "FR", "GR", "GT", "HN", "HK", "HU", "IS", "IE", "IT", "LV", "LT", "LU", "MY", "MT", "MX", "NL", "NZ", "NI", "NO", "PA", "PY", "PE", "PH", "PL", "PT", "SG", "SK", "ES", "SE", "CH", "TW", "TR", "UY", "GB", "AD", "LI", "MC", "ID", "JP", "TH", "VN", "RO", "IL", "ZA", "SA", "AE", "BH", "QA", "OM", "KW", "EG", "MA", "DZ", "TN", "LB", "JO", "PS", "IN", "BY", "KZ", "MD", "UA", "AL", "BA", "HR", "ME", "MK", "RS", "SI", "KR", "BD", "PK", "LK", "GH", "KE", "NG", "TZ", "UG", "AG", "AM", "BS", "BB", "BZ", "BT", "BW", "BF", "CV", "CW", "DM", "FJ", "GM", "GE", "GD", "GW", "GY", "HT", "JM", "KI", "LS", "LR", "MW", "MV", "ML", "MH", "FM", "NA", "NR", "NE", "PW", "PG", "WS", "SM", "ST", "SN", "SC", "SL", "SB", "KN", "LC", "VC", "SR", "TL", "TO", "TT", "TV", "VU", "AZ", "BN", "BI", "KH", "CM", "TD", "KM", "GQ", "SZ", "GA", "GN", "KG", "LA", "MO", "MR", "MN", "NP", "RW", "TG", "UZ", "ZW", "BJ", "MG", "MU", "MZ", "AO", "CI", "DJ", "ZM", "CD", "CG", "IQ", "LY", "TJ", "VE", "ET", "XK"],
        "external_urls": {
          "spotify": "https://open.spotify.com/album/22IfPSSgSIDVYR8VhcG25t"
        },
        "href": "https://api.spotify.com/v1/albums/22IfPSSgSIDVYR8VhcG25t",
        "id": "22IfPSSgSIDVYR8VhcG25t",
        "images": [
          {
            "url": "https://i.scdn.co/image/ab67616d0000b2734d15e3bbf111e1752736dcbd",
            "height": 640,
            "width": 640
          },
          {
            "url": "https://i.scdn.co/image/ab67616d00001e024d15e3bbf111e1752736dcbd",
            "height": 300,
            "width": 300
          },
          {
            "url": "https://i.scdn.co/image/ab67616d000048514d15e3bbf111e1752736dcbd",
            "height": 64,
            "width": 64
          }
        ],
        "name": "The Illusion of Progress",
        "release_date": "2008-01-01",
        "release_date_precision": "day",
        "type": "album",
        "uri": "spotify:album:22IfPSSgSIDVYR8VhcG25t",
        "artists": [
          {
            "external_urls": {
              "spotify": "https://open.spotify.com/artist/5KDIH2gF0VpelTqyQS7udb"
            },
            "href": "https://api.spotify.com/v1/artists/5KDIH2gF0VpelTqyQS7udb",
            "id": "5KDIH2gF0VpelTqyQS7udb",
            "name": "Staind",
            "type": "artist",
            "uri": "spotify:artist:5KDIH2gF0VpelTqyQS7udb"
          }
        ],
        "is_playable": true
      },
      "artists": [
        {
          "external_urls": {
            "spotify": "https://open.spotify.com/artist/5KDIH2gF0VpelTqyQS7udb"
          },
          "href": "https://api.spotify.com/v1/artists/5KDIH2gF0VpelTqyQS7udb",
          "id": "5KDIH2gF0VpelTqyQS7udb",
          "name": "Staind",
          "type": "artist",
          "uri": "spotify:artist:5KDIH2gF0VpelTqyQS7udb"
        }
      ],
      "available_markets": ["AR", "AU", "AT", "BE", "BO", "BR", "BG", "CL", "CO", "CR", "CY", "CZ", "DK", "DO", "DE", "EC", "EE", "SV", "FI", "FR", "GR", "GT", "HN", "HK", "HU", "IS", "IE", "IT", "LV", "LT", "LU", "MY", "MT", "MX", "NL", "NZ", "NI", "NO", "PA", "PY", "PE", "PH", "PL", "PT", "SG", "SK", "ES", "SE", "CH", "TW", "TR", "UY", "GB", "AD", "LI", "MC", "ID", "JP", "TH", "VN", "RO", "IL", "ZA", "SA", "AE", "BH", "QA", "OM", "KW", "EG", "MA", "DZ", "TN", "LB", "JO", "PS", "IN", "BY", "KZ", "MD", "UA", "AL", "BA", "HR", "ME", "MK", "RS", "SI", "KR", "BD", "PK", "LK", "GH", "KE", "NG", "TZ", "UG", "AG", "AM", "BS", "BB", "BZ", "BT", "BW", "BF", "CV", "CW", "DM", "FJ", "GM", "GE", "GD", "GW", "GY", "HT", "JM", "KI", "LS", "LR", "MW", "MV", "ML", "MH", "FM", "NA", "NR", "NE", "PW", "PG", "WS", "SM", "ST", "SN", "SC", "SL", "SB", "KN", "LC", "VC", "SR", "TL", "TO", "TT", "TV", "VU", "AZ", "BN", "BI", "KH", "CM", "TD", "KM", "GQ", "SZ", "GA", "GN", "KG", "LA", "MO", "MR", "MN", "NP", "RW", "TG", "UZ", "ZW", "BJ", "MG", "MU", "MZ", "AO", "CI", "DJ", "ZM", "CD", "CG", "IQ", "LY", "TJ", "VE", "ET", "XK"],
      "disc_number": 1,
      "duration_ms": 233506,
      "explicit": false,
      "external_ids": {
        "isrc": "USEE10801162"
      },
      "external_urls": {
        "spotify": "https://open.spotify.com/track/2HwwfFqm5rWXApPI7s8Yqv"
      },
      "href": "https://api.spotify.com/v1/tracks/2HwwfFqm5rWXApPI7s8Yqv",
      "id": "2HwwfFqm5rWXApPI7s8Yqv",
      "is_playable": true,
      "name": "Raining Again",
      "popularity": 55,
      "preview_url": null,
      "track_number": 10,
      "type": "track",
      "uri": "spotify:track:2HwwfFqm5rWXApPI7s8Yqv",
      "is_local": false
    }
  ]
}